# Anti Matter Positron 1

newmtl Material.001
Ns 96.078431
Ka 1.000000 1.000000 1.000000
Kd 0.178462 0.800000 0.178400
Ks 0.500000 0.500000 0.500000
Ke 0.000000 0.000000 0.000000
Ni 1.000000
d 1.000000
illum 2
